<svg id="Layer_1" data-name="Layer 1" xmlns="http://www.w3.org/2000/svg" viewBox="0 0 20 20">
  <defs>
    <style>
      .cls-1 {
      fill: none;
      stroke: #fff;
      stroke-linecap: round;
      stroke-linejoin: round;
      stroke-width: 2px;
      }
    </style>
  </defs>
  <circle class="cls-1" cx="2.5" cy="16" r="1.5" />
  <line class="cls-1" x1="8" y1="16" x2="19" y2="16" />
  <circle class="cls-1" cx="2.5" cy="4" r="1.5" />
  <line class="cls-1" x1="8" y1="3.94" x2="19" y2="3.94" />
  <circle class="cls-1" cx="2.5" cy="10" r="1.5" />
  <line class="cls-1" x1="8" y1="10.06" x2="19" y2="10.06" />
</svg>