<svg id="Layer_1" data-name="Layer 1" xmlns="http://www.w3.org/2000/svg" viewBox="0 0 25 25">
  <defs>
    <style>
      .cls-1 {
      fill: none;
      stroke: #f39c12;
      stroke-linecap: round;
      stroke-linejoin: round;
      stroke-width: 2px;
      }
    </style>
  </defs>
  <title>Assets_ManageMeeting</title>
  <path class="cls-1" d="M18.49,9.53h.92V5.92H14.8V2.5H10.2V5.92H5.59V9.53h1m-.08,0v13h12v-13" />
  <line class="cls-1" x1="6.51" y1="9.52" x2="18.49" y2="9.52" />
  <line class="cls-1" x1="14.68" y1="12.98" x2="14.68" y2="19.28" />
  <line class="cls-1" x1="10.32" y1="12.98" x2="10.32" y2="19.28" />
  <line class="cls-1" x1="10.2" y1="5.92" x2="14.8" y2="5.92" />
</svg>